<?xml version="1.0" encoding="UTF-8" standalone="no"?>
<svg
   xmlns:dc="http://purl.org/dc/elements/1.1/"
   xmlns:cc="http://creativecommons.org/ns#"
   xmlns:rdf="http://www.w3.org/1999/02/22-rdf-syntax-ns#"
   xmlns:svg="http://www.w3.org/2000/svg"
   xmlns="http://www.w3.org/2000/svg"
   xmlns:sodipodi="http://sodipodi.sourceforge.net/DTD/sodipodi-0.dtd"
   xmlns:inkscape="http://www.inkscape.org/namespaces/inkscape"
   width="32"
   height="32"
   viewBox="0 0 32 32"
   version="1.1"
   id="svg4"
   sodipodi:docname="iconmonstr-whatsapp-1.svg"
   inkscape:version="1.0.1 (3bc2e813f5, 2020-09-07)">
  <metadata
     id="metadata10">
    <rdf:RDF>
      <cc:Work
         rdf:about="">
        <dc:format>image/svg+xml</dc:format>
        <dc:type
           rdf:resource="http://purl.org/dc/dcmitype/StillImage" />
        <dc:title></dc:title>
      </cc:Work>
    </rdf:RDF>
  </metadata>
  <defs
     id="defs8" />
  <sodipodi:namedview
     pagecolor="#ffffff"
     bordercolor="#666666"
     borderopacity="1"
     objecttolerance="10"
     gridtolerance="10"
     guidetolerance="10"
     inkscape:pageopacity="0"
     inkscape:pageshadow="2"
     inkscape:window-width="1920"
     inkscape:window-height="1028"
     id="namedview6"
     showgrid="false"
     inkscape:zoom="3.7239583"
     inkscape:cx="48.065989"
     inkscape:cy="1.763536"
     inkscape:window-x="0"
     inkscape:window-y="28"
     inkscape:window-maximized="1"
     inkscape:current-layer="svg4"
     inkscape:document-rotation="0" />
  <g
     id="g843"
     transform="matrix(0.20669217,0,0,0.20669217,0.49808682,0.49808657)">
    <g
       id="g837"
       transform="translate(117.61678,39.205597)">
      <circle
         style="fill:#00bfa5;fill-opacity:1;stroke:none;stroke-width:20.388;stroke-linecap:round"
         id="path24"
         cx="-42.616783"
         cy="35.743748"
         r="68.081711" />
      <path
         style="fill:#00bfa5;fill-opacity:1;stroke:none;stroke-width:6.69691px;stroke-linecap:butt;stroke-linejoin:miter;stroke-opacity:1"
         d="m -99.597585,69.885925 -10.189095,34.040845 32.419854,-9.601259 z"
         id="path26" />
    </g>
    <path
       d="M 2.9059511,147.43813 13.089539,110.23511 C 6.8055371,99.345248 3.5035657,87.000583 3.5096022,74.34202 3.5277117,34.766656 35.73249,2.5618716 75.301824,2.5618716 c 19.202141,0.00604 37.227166,7.4852734 50.785166,21.0553494 13.55197,13.570076 21.01309,31.60717 21.00706,50.791201 -0.0181,39.581398 -32.2229,71.786188 -71.792226,71.786188 -12.012656,-0.006 -23.85026,-3.01826 -34.335679,-8.74087 z m 39.8228549,-22.981 c 10.117192,6.00633 19.775609,9.60409 32.548872,9.61013 32.886912,0 59.676942,-26.76589 59.695052,-59.670911 0.0121,-32.971422 -26.65119,-59.701091 -59.64676,-59.713164 -32.911062,0 -59.682987,26.765889 -59.69506,59.664872 -0.006,13.431236 3.929768,23.488063 10.539747,34.009703 l -6.030474,22.02119 z M 111.46656,91.473638 c -0.4467,-0.748528 -1.64193,-1.195229 -3.44081,-2.09467 -1.79285,-0.89944 -10.612187,-5.239691 -12.260155,-5.837305 -1.641931,-0.597615 -2.83716,-0.89944 -4.038425,0.89944 -1.195229,1.792843 -4.636041,5.837306 -5.680357,7.032535 -1.044316,1.195229 -2.094669,1.346142 -3.887513,0.446702 -1.792844,-0.899441 -7.575821,-2.788868 -14.42726,-8.903854 -5.330245,-4.75677 -8.934042,-10.630295 -9.978359,-12.429175 -1.044316,-1.792844 -0.108657,-2.764722 0.784747,-3.658126 0.808892,-0.802856 1.792843,-2.094669 2.692284,-3.145022 0.911513,-1.03828 1.207302,-1.786807 1.810959,-2.988073 0.597614,-1.195229 0.301825,-2.245582 -0.150913,-3.145022 -0.452738,-0.893403 -4.038432,-9.724819 -5.52945,-13.316542 -1.460835,-3.49514 -2.939781,-3.024292 -4.038425,-3.078621 l -3.440812,-0.06036 c -1.195229,0 -3.138985,0.446702 -4.780916,2.245582 -1.641931,1.79888 -6.277971,6.133095 -6.277971,14.96451 0,8.831415 6.428884,17.361005 7.322287,18.556234 0.89944,1.195229 12.64649,19.316834 30.641335,27.085829 4.279886,1.84717 7.624113,2.95185 10.225849,3.77886 4.297995,1.36425 8.209654,1.17108 11.300348,0.7123 3.446847,-0.5131 10.612187,-4.34025 12.109237,-8.52959 1.49706,-4.195376 1.49706,-7.7871 1.04432,-8.535627 z"
       id="path2"
       style="fill:#ffffff;stroke-width:6.03651" />
  </g>
</svg>
